%YAML 1.1
%TAG !u! tag:unity3d.com,2011:
--- !u!1045 &1
EditorBuildSettings:
  m_ObjectHideFlags: 0
  serializedVersion: 2
  m_Scenes:
  - enabled: 1
    path: Assets/Scenes/MainMenu.unity
    guid: 799d7687bedf08c40964776a043545f4
  - enabled: 1
    path: Assets/Scenes/MainCamera.unity
    guid: 54f6dcc9b3b071446b313e852b2cbf27
